<svg width="21" height="22" viewBox="0 0 21 22" fill="none" xmlns="http://www.w3.org/2000/svg">
<path d="M10.1531 10.9507C11.6393 10.9507 12.9077 10.4249 13.9588 9.37376C15.0101 8.3226 15.5358 7.05414 15.5358 5.5682C15.5358 4.0825 15.0101 2.81399 13.9588 1.76258C12.9074 0.71147 11.6389 0.185913 10.1531 0.185913C8.66738 0.185913 7.39868 0.71147 6.34757 1.76258C5.29625 2.81399 4.7706 4.08245 4.7706 5.5682C4.7706 7.05414 5.29625 8.3226 6.34757 9.37376C7.39897 10.4249 8.66733 10.9507 10.1531 10.9507Z" fill="#FF7E00"/>
<path d="M19.9717 16.6344C19.9389 16.1626 19.8734 15.6532 19.7755 15.1065C19.6773 14.5598 19.5534 14.0531 19.4038 13.5856C19.2543 13.1185 19.0533 12.663 18.801 12.219C18.5488 11.7752 18.2592 11.3968 17.9319 11.0836C17.6047 10.7706 17.2053 10.5208 16.7337 10.3339C16.2616 10.1471 15.7406 10.0535 15.1705 10.0535C15.0865 10.0535 14.8903 10.154 14.5819 10.3549C14.2737 10.5559 13.9256 10.7802 13.5378 11.0279C13.1501 11.2752 12.6452 11.4997 12.024 11.7003C11.4026 11.9012 10.7789 12.0017 10.1526 12.0017C9.52659 12.0017 8.90289 11.9012 8.28155 11.7003C7.66026 11.4997 7.15552 11.2752 6.76772 11.0279C6.37997 10.7802 6.03194 10.5559 5.72363 10.3549C5.41517 10.154 5.21903 10.0535 5.13494 10.0535C4.56495 10.0535 4.04396 10.1471 3.57211 10.3339C3.10016 10.5208 2.70073 10.7707 2.37361 11.0836C2.04659 11.3968 1.75689 11.7752 1.50469 12.219C1.25249 12.663 1.0516 13.1187 0.902053 13.5856C0.75256 14.0531 0.628695 14.5598 0.530604 15.1065C0.432415 15.6532 0.367021 16.1623 0.334275 16.6344C0.301578 17.1065 0.285278 17.59 0.285278 18.0853C0.285278 19.2064 0.626436 20.092 1.30851 20.7415C1.99072 21.3907 2.89721 21.7153 4.02785 21.7153H16.2786C17.4091 21.7153 18.3155 21.3907 18.9978 20.7415C19.6803 20.092 20.0212 19.2066 20.0212 18.0853C20.0211 17.59 20.0048 17.1065 19.9717 16.6344Z" fill="#FF7E00"/>
</svg>
